…
$`Optimal efficiency design:`
# A tibble: 1 x 6
  pp_threshold ppp_threshold `Type I error` Power `Average N under the null`
         <dbl>         <dbl>          <dbl> <dbl>                      <dbl>
1         0.92           0.1          0.061 0.796                       38.6
  `Average N under the alternative`
                              <dbl>
1                              81.6

[[1]]

[[2]]

# A tibble: 76 x 8
   pp_threshold ppp_threshold mean_n1_null prop_pos_null prop_stopped_null mean_n1_alt
          <dbl>         <dbl>        <dbl>         <dbl>             <dbl>       <dbl>
 1         0             0.05         95           1                 0            95  
 2         0             0.1          95           1                 0            95  
 3         0             0.15         95.0         0.999             0.001        95  
 4         0             0.2          94.9         0.997             0.003        95  
 5         0.7           0.05         65.1         0.286             0.59         92.1
 6         0.7           0.1          57.2         0.252             0.702        90.9
 7         0.7           0.15         48.6         0.21              0.756        84.4
 8         0.7           0.2          42.9         0.184             0.793        82.3
 9         0.74          0.05         62.0         0.187             0.686        91.9
10         0.74          0.1          48.1         0.149             0.772        84.4
   prop_pos_alt prop_stopped_alt
          <dbl>            <dbl>
 1        1                0    
 2        1                0    
 3        1                0    
 4        1                0    
 5        0.957            0.042
 6        0.94             0.06 
 7        0.865            0.135
 8        0.835            0.165
 9        0.942            0.047
10        0.854            0.137
# ... with 66 more rows
…
