Calculate a decision rule table for interim monitoring of a pre-specified design — calc_decision_rules • ppseq
…
# Two-sample case
calc_decision_rules(
  n = cbind(seq(5, 25, 5), seq(5, 25, 5)), 
  N = c(25, 25),
  theta = 0.86, 
  ppp = 0.2, 
  p0 = NULL, 
  direction = "greater", 
  delta = 0, 
  S = 50
  )
#> # A tibble: 80 × 5
#>       n0    n1    r0    r1   ppp
#>    <dbl> <dbl> <int> <int> <dbl>
#>  1     5     5     0     0  0.2 
#>  2     5     5     1     0  0.06
#>  3     5     5     2     1  0.04
#>  4     5     5     3     2  0.04
#>  5     5     5     4     3  0.06
#>  6     5     5     5     5  0.2 
#>  7    10    10     0     0  0.16
#>  8    10    10     1     1  0.18
#>  9    10    10     2     2  0.06
#> 10    10    10     3     3  0.16
#> # ℹ 70 more rows
…
